Date_format_datetime; consommation électrique; temperature; consommation gaz; precipitations; force du vent
1968-01-01 00:00:00;13.831995894435515;2.5158406647070057;8.76907382532153;2.0373333152491195;-0.08000000000000002
1968-01-02 00:00:00;8.572660470624593;7.036589799356479;6.01279187882237;3.5885111262251757;-0.73
1968-01-03 00:00:00;10.560392709945493;-7.058492434575305;7.828576378114152;3.456796678386742;0.46499999999999997
1968-01-04 00:00:00;16.688610952992526;0.8181043766571676;8.019881228827723;1.5898347671772584;0.365
1968-01-05 00:00:00;10.899119049849208;1.467997437662457;8.650451721145586;1.7769063125188613;0.14999999999999997
1968-01-06 00:00:00;6.7223010891549695;1.5164928895131071;8.443575915904498;3.061401548168077;1.145
1968-01-07 00:00:00;12.47712947872742;-3.1540393440089503;9.02319245864608;0.8579901944110575;-0.28500000000000003
1968-01-08 00:00:00;14.133590734655797;-3.9407046980527056;5.906475639074928;6.484660013753279;1.02
1968-01-09 00:00:00;16.876693213537706;-8.637333311013982;6.783522680840379;4.844118720846536;-0.39999999999999997
1968-01-10 00:00:00;8.296860833069081;2.580760512357184;7.3277456053317405;1.7822554773292856;0.22500000000000003
1968-01-11 00:00:00;10.04496644601965;-2.405630415854515;6.7889998360756785;2.0232450103805193;0.9
1968-01-12 00:00:00;15.760475645407176;7.313571600050476;8.295041223895302;3.8868699502524433;0.55
1968-01-13 00:00:00;14.091114774587997;-1.8750927074663473;5.72414912352027;6.506878408869891;0.63
1968-01-14 00:00:00;7.489275335908907;5.457355459480759;6.096908697453381;6.251968170414738;1.705
1968-01-15 00:00:00;13.894771320715062;-7.276772499548616;6.594458261777146;6.425196201455487;-0.18000000000000005
1968-01-16 00:00:00;6.041141574067802;2.206762801539292;6.974259270772398;4.629155419486244;0.30999999999999994
1968-01-17 00:00:00;14.287819432634539;-2.198622645096584;7.605231979353361;3.6134228694640833;1.695
1968-01-18 00:00:00;12.824068958332877;4.242469911552922;7.819053474002366;3.4451334108753;1.1
1968-01-19 00:00:00;18.24487063065949;-2.849268844516345;8.104065181940319;5.458829828394004;-0.25
1968-01-20 00:00:00;12.877045769015774;-3.332421662639238;6.6832947698533145;3.3773535946810647;0.345
1968-01-21 00:00:00;9.79014440303834;2.4875001412107913;7.754348933125431;0.7723117543915285;0.525
1968-01-22 00:00:00;6.828484113702954;3.742039752191893;6.838191454981861;6.131260007339959;0.22
1968-01-23 00:00:00;15.100600347128124;-4.806567946203343;9.504983427391732;6.609277810402175;1.015
1968-01-24 00:00:00;10.12331626767672;3.0958334660715723;6.633180216768279;1.3617652866003898;-1.075
1968-01-25 00:00:00;14.840178951874567;-1.0130934265448026;7.513869824981035;4.162006856281495;-0.265
1968-01-26 00:00:00;17.210201938696777;6.214441940463074;7.571860731204532;4.879670676090743;1.135
1968-01-27 00:00:00;8.020461519655539;0.9405614587506732;6.6262604689536;4.383426277036495;-0.9049999999999999
1968-01-28 00:00:00;8.588027494597764;-7.195972180683517;7.83006455668607;4.897461618162987;-0.275
1968-01-29 00:00:00;11.96730605515931;1.0736012133257455;6.9848669286368645;4.835167649064662;0.48500000000000004
1968-01-30 00:00:00;13.91916459833039;-7.159717051019249;5.512202608941953;4.2478322171757394;0.010000000000000009
1968-01-31 00:00:00;9.19222981822032;0.7604442197543158;7.592908409306813;2.8129885929962644;0.08999999999999997
1968-02-01 00:00:00;11.991519853794852;4.152649803866394;7.963669354421282;2.3678695083152883;-0.685
1968-02-02 00:00:00;16.254357755251164;3.203594970975421;7.647306114197111;2.8613149536823146;-0.265
1968-02-03 00:00:00;3.179830814133392;2.2605899141897514;9.332810402028027;4.1478444351408275;-0.49
1968-02-04 00:00:00;12.155783774774703;-0.979294799232477;9.003825307575458;5.114930014372179;-0.625
1968-02-05 00:00:00;12.482104652029676;2.9596410546220238;5.949290986857661;5.414230093184447;-1.08
1968-02-06 00:00:00;15.765713328059862;4.5810682056965275;7.645577484111613;7.342718872909996;-0.405
1968-02-07 00:00:00;12.157590273690042;0.24735356971500932;2.2306462329378722;7.5570654443021095;-0.895
1968-02-08 00:00:00;10.295775705219295;2.2827078683537394;4.327220387526335;4.566748148975833;-0.615
1968-02-09 00:00:00;13.546289921302709;4.466494107774495;7.575215684762396;0.5648290265353908;-1.205
1968-02-10 00:00:00;9.312668947799626;-0.5405972616215697;4.778699532605615;2.9884426338476855;-0.395
1968-02-11 00:00:00;6.95187883022834;0.5170792867523861;8.32100472904564;3.8050218528858197;-0.7899999999999999
1968-02-12 00:00:00;8.207589499237232;0.23416865089529715;3.2564111476635884;2.836591736739246;-1.055
1968-02-13 00:00:00;7.9847166221289045;7.54436881974419;2.901770195974457;4.03849446514545;-0.81
1968-02-14 00:00:00;6.721039051101555;4.536114237895594;0.5401928627302094;4.294676536092169;-0.7699999999999999
1968-02-15 00:00:00;12.316935841459891;2.867619047451815;2.723673513045708;4.435723783452101;-0.07500000000000001
1968-02-16 00:00:00;13.535575513150526;1.699581551619664;2.937421943969088;4.587473286944425;-0.795
1968-02-17 00:00:00;11.030130880290915;-0.5504742584686699;3.4461266031301205;1.8839607158660505;-0.20500000000000002
1968-02-18 00:00:00;3.3710580694080887;0.6557645899168212;3.900662643740895;6.810518366154657;-0.655
1968-02-19 00:00:00;4.848509196108017;-0.17557518726909427;4.756034641013736;7.546590830172434;-0.7350000000000001
1968-02-20 00:00:00;10.693347279745279;0.24660667536416891;4.882806745870607;1.3135711855864698;-0.32
1968-02-21 00:00:00;12.658058041805418;2.886872968859198;0.719707786681042;3.244403554085533;-1.11
1968-02-22 00:00:00;5.657690876740391;0.3781758885279354;5.226246822670047;6.111457483507828;-0.22500000000000003
1968-02-23 00:00:00;7.521770773960963;8.138169021944286;4.946666641786389;3.7389558271499577;-0.4
1968-02-24 00:00:00;12.796111398247856;0.027425230906019893;3.8660421133324814;2.0323051584071146;-0.26
1968-02-25 00:00:00;2.925136671493166;2.2315903287300185;3.287704551589268;3.4665603999280514;-1.02
1968-02-26 00:00:00;6.597696453932248;2.4035835193703012;3.6674601699618314;3.831473709687907;-0.455
1968-02-27 00:00:00;8.537954579290359;-2.77824497514747;5.507603658003131;3.81923268398012;-1.0
1968-02-28 00:00:00;19.49614694361348;3.4548797337482378;4.972473472689087;5.530376593200817;-1.1949999999999998
1968-03-01 00:00:00;5.202368069618553;10.446503190589663;0.567023828399903;0.831104028759138;-0.33499999999999996
1968-03-02 00:00:00;7.2518525329497034;7.809149609075331;6.73795010753897;5.254237817567685;0.30000000000000004
1968-03-03 00:00:00;9.7439802732946;14.152806750351203;5.080837457732236;6.648960308138165;-0.48000000000000004
1968-03-04 00:00:00;16.284256763746118;13.347664396165378;2.3960825410520177;7.167866505860163;0.36000000000000004
1968-03-05 00:00:00;16.165573329515226;4.359998316844567;4.26454998269313;2.571368592968879;-0.24500000000000002
1968-03-06 00:00:00;14.067413942889665;8.16697939856619;2.1191904250383575;2.7438114120544452;-0.5800000000000001
1968-03-07 00:00:00;18.310289469960768;1.2228107806945818;2.2660830862596053;4.664401710316032;-0.74
1968-03-08 00:00:00;11.573136578028926;5.778057773957514;6.896987090163346;5.465135433508596;-0.41500000000000004
1968-03-09 00:00:00;18.71020655318589;2.8835721056135664;2.5796217051437766;2.244952617855404;0.19
1968-03-10 00:00:00;6.823745768213807;4.922932305837805;6.427049358398058;6.080689604681719;-0.885
1968-03-11 00:00:00;9.372872423119075;7.213226198524946;1.6893577805303663;2.2269391910531104;-0.04999999999999999
1968-03-12 00:00:00;10.084816216385601;5.668180981412641;6.722264029742563;6.816940874276248;-0.35
1968-03-13 00:00:00;4.81337259519988;6.7396696647785035;6.3815590955636115;0.9292043620736838;-0.28500000000000003
1968-03-14 00:00:00;8.137203473384538;7.679021543946376;2.0933045626026074;3.2234826448439304;-0.665
1968-03-15 00:00:00;8.663190467789033;5.418960648116931;5.203134330604919;0.5189253246995915;-1.0
1968-03-16 00:00:00;18.519986733570658;6.494825638290664;2.5986702763472076;1.6511482431778788;-0.7949999999999999
1968-03-17 00:00:00;15.368476107007025;7.060293215812122;1.9617361386656595;2.0838564736440697;-0.39
1968-03-18 00:00:00;5.146661180778418;8.11206820733259;5.198444022823036;7.048095140650723;-0.7050000000000001
1968-03-19 00:00:00;17.552921840624464;4.15676656420189;4.793360024547556;6.817088865520638;-0.25
1968-03-20 00:00:00;16.740351403795394;5.349227878724428;3.205213204268048;2.691439026503266;-0.04500000000000001
1968-03-21 00:00:00;6.74927303672253;2.1345679162249693;2.8158869102259323;5.31540644417697;-0.9450000000000001
1968-03-22 00:00:00;3.303712238765135;9.698346201569345;6.477244156297937;5.983855401435729;0.195
1968-03-23 00:00:00;13.517619410184238;12.884759386390122;6.060047470532886;0.9010893957297634;-0.515
1968-03-24 00:00:00;10.972599117242058;5.766089010929024;7.537565588113487;2.4185776555710836;-0.745
1968-03-25 00:00:00;3.7697876186770154;14.79632331517519;3.71086573305801;1.5431869014292134;-0.5800000000000001
1968-03-26 00:00:00;7.463890946904132;8.15058455960113;5.733337619120288;5.851283764395008;-0.87
1968-03-27 00:00:00;15.809955790770253;9.657533214007138;3.7732123889669857;3.41049250099734;0.0050000000000000044
1968-03-28 00:00:00;8.693905632236609;8.515843550205531;5.895373484979149;4.474679256582953;0.305
1968-03-29 00:00:00;15.217402761288893;8.349103681301955;1.498925829474191;2.8239059743498682;-0.295
1968-03-30 00:00:00;12.971674004246234;5.745605043845765;2.6390871369025044;4.146826244781572;-0.345
1968-03-31 00:00:00;11.340800966505793;12.204653361308107;4.460998699897875;5.096255264042473;-0.99
1968-04-01 00:00:00;8.415766424273585;15.968305593289774;3.98615593299184;3.781059269463193;-0.165
1968-04-02 00:00:00;2.829450289020256;11.660184769987849;4.129673830428466;3.083674584223423;-0.605
1968-04-03 00:00:00;8.094281531331315;6.578827466798872;4.8275825633358975;4.650329312561927;0.11
1968-04-04 00:00:00;10.716515436167157;16.115366382817434;2.486691075948626;6.391228325778478;-0.59
1968-04-05 00:00:00;2.353022865985994;7.75872863638088;2.7563029393467087;4.10494944803918;-0.63
1968-04-06 00:00:00;4.416615117461969;8.185179860314157;5.441600827798586;4.57931301022481;-0.040000000000000036
1968-04-07 00:00:00;8.704169398287306;8.922815962756648;5.303782162680031;5.096862107299513;-0.46
1968-04-08 00:00:00;7.601805234649339;9.91204183007889;5.330905077981464;2.3621666805839747;-0.83
1968-04-09 00:00:00;7.822163195867204;14.749577176245873;4.495476580413406;1.5376472050741956;-0.855
1968-04-10 00:00:00;9.567104837855384;7.550798687399633;7.383342504863792;5.812485348582252;-1.165
1968-04-11 00:00:00;8.642024342839035;12.194439728565952;2.6041744249701217;5.676904451217196;-0.47
1968-04-12 00:00:00;6.691249207910978;10.803283269399003;2.684145879925092;5.5607989407916545;0.085
1968-04-13 00:00:00;11.128625179068422;12.217462098319285;2.8983703221346215;5.855824589621703;0.3
1968-04-14 00:00:00;12.865130426299203;14.80356305591631;4.129168866312217;3.5927415878481463;-0.9099999999999999
1968-04-15 00:00:00;4.275346219934817;10.83336913576827;2.393462886391959;2.437589938860617;-0.855
1968-04-16 00:00:00;10.402874011581346;14.099389374321973;3.961581727775421;3.4686667579787622;-0.27
1968-04-17 00:00:00;2.640822904886655;9.350755766162408;3.8277848888704167;2.050409245535428;-0.425
1968-04-18 00:00:00;4.432326863887132;8.52054301395436;1.8969207352762805;3.9213401740329292;-0.505
1968-04-19 00:00:00;5.443409683556723;11.626623162793404;3.347767351577676;5.075469955949688;-0.33000000000000007
1968-04-20 00:00:00;7.563381273462916;10.986661803723992;1.7071581407156602;6.025771945199736;-0.10999999999999999
1968-04-21 00:00:00;4.4198759990784;12.014045121017455;7.168311544412226;3.921703332101154;-0.81
1968-04-22 00:00:00;9.559028520736845;11.436178728555173;3.230428801641061;5.5854449743841625;-0.475
1968-04-23 00:00:00;5.297035574349179;7.94363745281407;4.590498815823925;3.2099436825903793;0.155
1968-04-24 00:00:00;5.200232172188489;13.797781349578543;4.046347588711839;5.59890334679319;-0.53
1968-04-25 00:00:00;10.301535196275005;7.364668803224657;6.519349328538732;3.606521063781522;-1.045
1968-04-26 00:00:00;14.333125005703081;11.63405551762866;3.1821856605873045;4.203635907774254;-0.1
1968-04-27 00:00:00;8.009826619281576;13.428922159019095;2.2987791447244486;2.0428077481747096;-0.5700000000000001
1968-04-28 00:00:00;1.4078244741608148;9.604512108083746;3.9050800343473746;5.147980124358975;-0.31000000000000005
1968-04-29 00:00:00;10.735053358148786;14.957292556321656;2.2005393415899555;5.68756151678593;-1.06
1968-04-30 00:00:00;1.8670293865047904;11.684235912557044;4.655043511136682;0.9887204094127449;0.23
1968-05-01 00:00:00;4.946168342542256;16.330380897400417;3.93908550734695;5.617289555020751;-0.305
1968-05-02 00:00:00;2.522466498178243;15.208365660994929;6.076695037470373;2.7495650651460615;1.15
1968-05-03 00:00:00;3.5527366578217086;22.40042072055392;4.91479270377117;5.434751696322774;0.54
1968-05-04 00:00:00;3.9180563302794185;18.225153131379887;6.96678412997548;4.921396624864268;0.5650000000000001
1968-05-05 00:00:00;6.494637123985762;16.00107910651739;4.246229659177224;3.8984723395841465;1.255
1968-05-06 00:00:00;5.917077144918842;16.367826105488323;4.31754049578524;5.0103682024966165;0.7549999999999999
1968-05-07 00:00:00;6.4737183074632005;18.66145665550484;4.769978554249507;3.9435067972728906;1.455
1968-05-08 00:00:00;1.4814488820224412;14.173323854557763;2.431638516408263;4.726638340704037;-0.21000000000000002
1968-05-09 00:00:00;1.0178570203018875;19.909657944558894;0.7541703163257791;6.517569828293737;-0.245
1968-05-10 00:00:00;2.4803075578937355;23.713985794462808;6.327061313804569;5.976090650151239;0.8200000000000001
1968-05-11 00:00:00;6.1712827173045515;16.049388236013154;3.096605131118417;5.179916554478483;-0.5449999999999999
1968-05-12 00:00:00;2.6903155957039786;21.18320319277899;1.2761699277699075;1.628219178374029;-0.195
1968-05-13 00:00:00;4.255262489363853;15.693678732613355;3.4632197382352072;6.287759115787001;0.04000000000000001
1968-05-14 00:00:00;3.681727020954416;18.82537329025428;4.130297085048443;2.5943420257532264;1.325
1968-05-15 00:00:00;5.4243563554067915;15.698693230463025;1.1254169923541473;0.5634451051299356;-1.1099999999999999
1968-05-16 00:00:00;2.1449314041332026;21.606975545210553;4.682696202921759;5.093707802957134;0.32999999999999996
1968-05-17 00:00:00;3.8046740338435736;15.831390908361858;6.093174698700064;3.8027851370693453;-0.5
1968-05-18 00:00:00;5.672522541075791;24.099617748620428;6.424153398160127;4.431299206603892;0.020000000000000018
1968-05-19 00:00:00;3.503344458221897;21.179502288307315;3.760275256543346;4.003924060518893;-0.37
1968-05-20 00:00:00;1.9179734199115432;14.785360436497172;3.1008670808893974;5.867249990256647;-0.22
1968-05-21 00:00:00;4.051606267361049;14.345303824294982;6.468434296328882;6.151128744890654;-0.53
1968-05-22 00:00:00;3.6954991785167195;20.254271225516877;3.0133609664671708;4.278082810733234;-0.42500000000000004
1968-05-23 00:00:00;3.6450263573431876;22.871089238619092;5.608556102619657;5.706768777637269;-0.79
1968-05-24 00:00:00;2.71882581578908;19.255652768609732;3.6927412988573445;3.7566965414360762;0.715
1968-05-25 00:00:00;4.637542721680166;23.07724675189719;5.725392065824379;3.832113970273316;0.21999999999999997
1968-05-26 00:00:00;4.960282448280061;18.071334347284065;5.219358274166788;3.7493693916672792;-1.27
1968-05-27 00:00:00;3.4730323969469032;18.022455743908534;3.6849102942047876;4.74018359268324;0.6799999999999999
1968-05-28 00:00:00;2.6698172262572406;17.916591600918835;3.041648776323043;2.75420939426033;0.16999999999999998
1968-05-29 00:00:00;3.2567884444119315;21.741179735820722;4.460000980806955;4.124844927218541;0.585
1968-05-30 00:00:00;3.703568642425067;17.6241472944358;3.526166215115571;2.091266124616708;0.8
1968-05-31 00:00:00;1.4875377875745017;13.007813353264098;1.2401810302848855;3.8544706145650935;1.3
1968-06-01 00:00:00;3.0166014520105744;18.441534594874447;1.2570403137513888;2.8008050284610158;-0.03500000000000003
1968-06-02 00:00:00;3.651461134404218;19.269915894785314;1.5017170082653997;4.228899419241154;-0.32999999999999996
1968-06-03 00:00:00;2.5629469698273812;20.53934822676631;2.6212936322965286;0.9436129997711578;0.3400000000000001
1968-06-04 00:00:00;4.308826075834723;19.1029568739941;3.189397127464538;2.7039579741103807;0.515
1968-06-05 00:00:00;2.0193792961235904;16.746803682274916;3.8225653588126116;1.1801493090151922;0.565
1968-06-06 00:00:00;1.635983498614545;20.022452837835587;1.1238897280901912;5.457156626867765;-0.33999999999999997
1968-06-07 00:00:00;3.5612981603492493;16.343586185089855;1.9856041801069206;3.911897677066828;0.645
1968-06-08 00:00:00;3.301644346926761;20.649772912441456;4.397048925187621;3.2988373984446406;0.545
1968-06-09 00:00:00;2.5608223464555753;16.615324949180348;2.880070285074991;3.5177305521952404;0.2300000000000001
1968-06-10 00:00:00;2.9484842097558825;22.676361877472687;2.2179082754052573;6.923629750570726;-0.15
1968-06-11 00:00:00;4.630314741786092;19.137100321851246;3.417676902641386;4.806663826559347;1.06
1968-06-12 00:00:00;3.2095046262300375;21.015004581041772;1.1430652705773674;2.797998854895431;0.0050000000000000044
1968-06-13 00:00:00;1.5336618671078193;17.576409211946892;2.8007959943593765;2.297211765378825;-0.31
1968-06-14 00:00:00;2.866660403685157;21.834032597692634;3.075910858474261;3.0171793726167335;-1.105
1968-06-15 00:00:00;2.1329521454295257;20.246228592733175;1.485530955222861;5.333431983615893;-1.355
1968-06-16 00:00:00;2.672230595423064;18.793792549332956;2.606804900551489;4.0025662431952735;0.9199999999999999
1968-06-17 00:00:00;2.7074527615996162;19.40428489893474;2.42202632193866;6.341948651188739;0.305
1968-06-18 00:00:00;0.2843774574703681;18.104248452447692;1.819501352611539;3.138205196320786;0.29
1968-06-19 00:00:00;3.8309938007131707;19.864417296814324;2.1280339989684545;4.091800196243819;-0.24500000000000002
1968-06-20 00:00:00;2.8993336392680282;21.189376409407853;1.739025259655127;5.420347064412477;-1.5750000000000002
1968-06-21 00:00:00;1.811019037058218;21.891944155602637;1.8089481550231992;3.9726680943973154;0.63
1968-06-22 00:00:00;2.668465094897071;17.082788455396603;2.5348370543247887;4.6108332085078425;0.265
1968-06-23 00:00:00;2.4579351682512525;16.763060813797072;3.0924339605086857;2.7086592645560668;1.07
1968-06-24 00:00:00;0.9756223629289348;20.960251882427777;0.9900028775975054;5.311466840233569;1.13
1968-06-25 00:00:00;0.994655968692103;19.898716276060714;3.037788333772128;4.283083716789878;-0.59
1968-06-26 00:00:00;1.5656114993510428;19.937118460475325;3.127563626416924;2.585622734190678;-0.395
1968-06-27 00:00:00;2.280017718914072;21.13782468621197;1.2796818732410242;1.0944183079954928;0.725
1968-06-28 00:00:00;4.204292111204738;21.16764731440093;1.683956158542641;4.000499706355228;-0.915
1968-06-29 00:00:00;1.4803002893886936;16.98161141932357;3.6286891719534804;5.40612883973157;0.64
1968-06-30 00:00:00;3.145184057664474;19.66279776450469;1.6375963235969944;3.555919595073364;-0.0050000000000000044
1968-07-01 00:00:00;3.730786470297156;18.635349652853648;1.1105159418880324;4.454298196582586;-0.78
1968-07-02 00:00:00;0.8584142359321991;28.668038779503636;3.2325779548394644;2.42570312648147;-0.195
1968-07-03 00:00:00;2.61061173972843;18.562594910351425;0.9465849167055811;4.738947373533181;-0.7
1968-07-04 00:00:00;1.6551843669973723;29.532622987353957;3.3839851887701395;1.8641569491620373;0.61
1968-07-05 00:00:00;3.7332914301322115;23.39413842364531;4.126394804615341;5.978676832484076;0.14500000000000002
1968-07-06 00:00:00;2.493404832496108;24.378609036785114;3.9999145849214948;2.181281690911735;-0.895
1968-07-07 00:00:00;4.369890947897778;19.74956209943909;2.839612936116227;5.144188715702587;-0.825
1968-07-08 00:00:00;0.7263421870145699;18.209926177901934;3.046061033964984;7.718107149846111;-1.06
1968-07-09 00:00:00;1.829968356161245;22.057719978518136;0.2723317773740269;2.478542444536847;-0.375
1968-07-10 00:00:00;2.284062624360561;22.892814600835607;2.6581152281904465;3.587934061458273;-0.675
1968-07-11 00:00:00;2.8245728474358325;21.708011339539464;2.724362307545052;0.4845217052476545;-1.365
1968-07-12 00:00:00;1.890717783972186;23.510634935731638;3.1774866750727453;1.795984342790042;-0.75
1968-07-13 00:00:00;2.273787121686926;17.643869710301335;0.7360132962906072;4.998191766545805;-0.66
1968-07-14 00:00:00;3.1245915808062596;23.422267705573603;1.2391173246906861;2.9624331455141757;-0.5900000000000001
1968-07-15 00:00:00;1.4953847269477816;18.987825677325908;3.011807646641226;1.901633293358218;-0.5800000000000001
1968-07-16 00:00:00;1.4714058593814603;20.772399600337984;1.0298752071491233;4.707693027908743;0.30500000000000005
1968-07-17 00:00:00;4.779266392633379;22.642159960795453;1.7840896605751917;4.184746847823105;0.11499999999999999
1968-07-18 00:00:00;3.555115589876678;22.703191283077615;1.1279029916450447;3.7564452797935433;-1.13
1968-07-19 00:00:00;3.2452084743625393;18.779848096895556;2.386170092003158;4.869242627278387;-0.27999999999999997
1968-07-20 00:00:00;4.690621422217244;17.752617064757274;0.2970389648632821;3.476048263517304;0.41500000000000004
1968-07-21 00:00:00;2.366184924662388;20.423498937255196;3.605814772317208;3.273765869715526;-0.52
1968-07-22 00:00:00;2.723255319188889;19.687213978307888;3.327427263561227;2.5593911829774387;-0.22999999999999998
1968-07-23 00:00:00;2.230593948553121;22.01685493910601;2.4367800037608593;4.2934244456855915;-0.2
1968-07-24 00:00:00;2.6572597540917684;19.847315770461172;2.1604822709285623;4.568019929956787;0.17
1968-07-25 00:00:00;2.5003647239248457;21.77227070454004;1.6642469457204694;7.3074806159567665;-0.55
1968-07-26 00:00:00;3.002455171803351;20.63448173312763;3.703130396137123;4.069654734203195;-0.355
1968-07-27 00:00:00;3.019531341238655;21.171967338450948;2.1146497828769095;6.088857694271224;-0.6200000000000001
1968-07-28 00:00:00;1.7249835458381937;20.77981349708596;3.954634424966239;4.923621415449737;-0.35
1968-07-29 00:00:00;2.949521725843245;19.53551294494794;3.7238237513077417;2.915497614238936;-0.02999999999999997
1968-07-30 00:00:00;4.013411898680892;21.32781431225563;4.060251117370465;4.293915406355471;-0.33
1968-07-31 00:00:00;2.859381403443164;25.38981635964208;2.76911519850848;4.914696152834958;-0.755
1968-08-01 00:00:00;1.2287385063326277;28.486469159013055;1.5886941241339059;5.169116788643189;-0.065
1968-08-02 00:00:00;2.6596798738785776;27.996305867234344;2.039381560197488;2.659722664039837;-0.125
1968-08-03 00:00:00;2.51326290010378;33.9571946537659;1.3939806549967526;2.134584899633551;-0.11499999999999999
1968-08-04 00:00:00;2.735502453796448;20.647033743342107;1.8321108981958356;4.815483584692757;-1.525
1968-08-05 00:00:00;3.218006000692077;24.941731632695408;1.7706621651640293;4.889882918926988;-0.64
1968-08-06 00:00:00;2.1950178968102483;27.727472298970216;4.025298941729579;4.593272240383402;0.3
1968-08-07 00:00:00;1.571725776250661;25.018070836775667;2.530107172641744;1.3033332604598225;0.265
1968-08-08 00:00:00;0.8732350556263782;17.83016707753374;0.94981328999453;4.123315142836876;0.09
1968-08-09 00:00:00;2.3746417796337913;21.188768717416032;3.22254648788548;3.2853017594838847;0.57
1968-08-10 00:00:00;2.3963054126337844;27.283989976935246;2.2049360714702377;4.474381225519557;-0.85
1968-08-11 00:00:00;3.774249631928999;28.059924597187834;3.3745018569295455;4.355396999465638;-0.635
1968-08-12 00:00:00;1.1886127776912194;35.74023037998924;1.835844657066905;5.651327289549261;0.0049999999999999906
1968-08-13 00:00:00;3.8723940144775595;17.07254302336323;0.4996323120979407;5.96247445391464;-0.355
1968-08-14 00:00:00;4.342640689444101;27.59542976827676;1.8225453760218575;3.7767049444250214;-0.12
1968-08-15 00:00:00;3.6034825882913806;36.293635784624534;1.7137714372362292;0.311442355920176;0.28
1968-08-16 00:00:00;1.2945640072198978;23.542551172371095;0.2003776922114106;4.50565224894524;-0.24
1968-08-17 00:00:00;0.24201134109502975;21.08381312098807;1.1346784827335987;4.442541502705927;0.5800000000000001
1968-08-18 00:00:00;2.639950877954926;25.21647188926707;2.207092970430175;4.556532883967055;-0.835
1968-08-19 00:00:00;1.0775919621170755;23.265792043045753;3.692480865449137;3.748750817782121;-0.07500000000000001
1968-08-20 00:00:00;2.5253465620100943;33.08634825380205;2.816030978288434;4.464822776240469;0.4
1968-08-21 00:00:00;2.040030721360427;27.15832758845591;2.2765861319435743;4.830582791514276;-0.47
1968-08-22 00:00:00;2.4985574185805213;25.359942836078748;2.5489025200066866;3.679756917909811;0.125
1968-08-23 00:00:00;0.4108587036610681;25.163490839673265;0.5863095989104272;4.255533643065106;-0.8
1968-08-24 00:00:00;0.682194888235903;31.560205405664995;2.413992402525057;7.038480657699747;-0.015000000000000013
1968-08-25 00:00:00;2.715371382942115;24.58206483580691;3.9321495434037086;4.234900685697354;-0.16
1968-08-26 00:00:00;1.0425007223860494;33.68463663830185;2.6965395296139922;5.3162011580021975;-0.7849999999999999
1968-08-27 00:00:00;2.6966934079306646;39.48832629442991;1.7790026429529222;5.011840059402152;-0.51
1968-08-28 00:00:00;3.27617818483074;22.374454868360836;1.0749403563283566;6.64715924098341;-0.71
1968-08-29 00:00:00;1.9079785998454064;30.707480910846783;1.068616920422436;6.597775709552151;-0.495
1968-08-30 00:00:00;2.8243882707863874;32.83956554195842;2.7116972857848722;4.422776320057049;0.41500000000000004
1968-08-31 00:00:00;2.347540668161543;28.47465780651206;3.777017021615025;4.144868785799822;-0.22000000000000003
1968-09-01 00:00:00;2.1283462513374474;21.179927523078888;7.752160238330099;4.508626480924361;0.26
1968-09-02 00:00:00;6.717941435649207;20.26128301643724;4.360394805399057;1.6193677515765104;0.12
1968-09-03 00:00:00;6.556865639218467;24.45573693127116;5.270090916992062;6.446883587875208;1.17
1968-09-04 00:00:00;5.562674182504049;21.757408635056684;0.5449841915669296;4.137506199424218;-0.125
1968-09-05 00:00:00;4.317293465285113;25.969282516052008;4.30178478376319;5.752460156753891;0.905
1968-09-06 00:00:00;7.165850427107175;12.283933478179883;6.434803970854911;1.505713619902005;-0.15000000000000002
1968-09-07 00:00:00;7.246607086460367;19.45427379847074;6.215357256172634;3.3905921231658542;-0.19
1968-09-08 00:00:00;6.084899210452573;20.96235724630372;6.147740934472514;3.53128201935427;-0.9950000000000001
1968-09-09 00:00:00;4.227110292591039;26.034662102104868;0.38955878450678993;6.03534759673016;0.645
1968-09-10 00:00:00;4.187011174857266;18.800718090853998;4.7119820274466875;5.243680156385929;0.325
1968-09-11 00:00:00;8.982287798038945;18.698365080088386;5.091467017949302;2.774580718546187;0.82
1968-09-12 00:00:00;5.491590924793751;24.591356683608865;2.8079999505815136;4.239625557572281;0.9049999999999999
1968-09-13 00:00:00;4.725676723544256;23.17776800894918;6.025550443970687;6.505567360465861;-0.57
1968-09-14 00:00:00;5.850306571057869;25.576690899643275;5.389270331392127;5.7278867745773905;-0.32
1968-09-15 00:00:00;7.05636817582903;22.540554430493305;4.406406781640694;2.9079068777559165;-0.16499999999999998
1968-09-16 00:00:00;8.360038392303721;15.132769847284777;2.6916313548824577;1.7100729288628709;-1.2650000000000001
1968-09-17 00:00:00;4.10812930985931;21.254369073407993;3.4930001454643156;5.02920249907638;-0.405
1968-09-18 00:00:00;3.3485090109188853;18.947740797283725;6.00163685842911;0.4790797027542433;0.565
1968-09-19 00:00:00;3.7829661879428538;20.822518863838148;8.022993258591448;3.150055285328805;-0.63
1968-09-20 00:00:00;4.580533358548196;15.619870409266127;3.235952454481017;3.561262729738729;0.14
1968-09-21 00:00:00;4.426353757651101;18.133625743057948;3.556582685681344;1.577123250080839;0.28
1968-09-22 00:00:00;5.941507897127633;23.78542954035996;3.98546419853238;4.46815298333699;0.22499999999999998
1968-09-23 00:00:00;3.145621437327277;23.803454475567438;5.849858169517783;4.417887649691821;0.05
1968-09-24 00:00:00;4.40078763497587;25.32123163516978;8.047672719297323;4.028864694905939;1.275
1968-09-25 00:00:00;0.9651480688998004;12.763596267624063;5.609692868700352;3.08252266856349;-0.33
1968-09-26 00:00:00;5.709249567954436;14.148798003940074;6.5811020233632185;3.636644618939082;-0.11500000000000002
1968-09-27 00:00:00;5.657090350704472;24.768877969745507;7.666181913252421;1.4583467132243628;-0.165
1968-09-28 00:00:00;7.389506834872003;12.69825840614606;8.258322204730472;4.112425136519746;0.85
1968-09-29 00:00:00;4.774862081407688;16.963872556925757;4.301537461363605;4.011696287520296;-0.6950000000000001
1968-09-30 00:00:00;9.5494275485925;25.67353315678473;4.988650569163804;5.034731898865177;-0.505
1968-10-01 00:00:00;12.955982235643198;23.12319219557789;6.950413821810672;4.57900865694244;0.58
1968-10-02 00:00:00;12.80578940362918;18.64599815631211;7.961444160175671;5.406751568617292;0.42500000000000004
1968-10-03 00:00:00;8.45552423355732;19.103113578251815;7.26822372506374;3.836701723412184;-0.805
1968-10-04 00:00:00;13.049091484024853;14.026429692250396;7.91436385283858;1.6066832764656969;0.795
1968-10-05 00:00:00;7.062509483420207;14.70513623178934;7.203734626512841;1.4282806240882775;0.010000000000000009
1968-10-06 00:00:00;17.03464237907864;13.497278978750494;6.055089954012085;0.9171323562431217;-0.865
1968-10-07 00:00:00;13.851585723956546;17.622142403574976;7.6432602563837015;2.5865994424727985;-0.8999999999999999
1968-10-08 00:00:00;12.20752472326071;14.70320461159922;7.4821134106393306;1.9248323928399151;-0.56
1968-10-09 00:00:00;9.33141201687983;16.64402900145143;6.530084191282365;1.8071481303440882;1.405
1968-10-10 00:00:00;18.760371765738086;13.292129992761463;7.75349260471746;3.6935370734938995;0.27
1968-10-11 00:00:00;15.573856280989702;16.275483104338953;9.246026491951095;6.231068133569754;-1.29
1968-10-12 00:00:00;15.40371026820661;24.326625150400403;7.862408034481399;4.108291502977904;0.395
1968-10-13 00:00:00;9.436723384547506;18.643058078021824;7.057588350177487;4.0194425976674655;1.7
1968-10-14 00:00:00;10.092366867260548;14.080206723071987;6.075330201757148;4.507470201730341;1.085
1968-10-15 00:00:00;11.473588093271301;18.785186944651166;5.62983354367325;4.955154955502257;-0.365
1968-10-16 00:00:00;12.14941723081878;15.816325288321163;6.424752760774809;6.1469692785408565;0.0
1968-10-17 00:00:00;8.994380357543179;17.718990353739564;6.752473484991846;5.179529662442268;1.455
1968-10-18 00:00:00;11.980219577235184;19.816194990661494;7.208300961968069;4.834295546872423;1.705
1968-10-19 00:00:00;13.325230842058502;16.440134761616065;8.767566800518207;5.039389148591565;0.265
1968-10-20 00:00:00;13.69924048884261;14.647266647680818;7.937516394613306;4.5604986812068535;0.525
1968-10-21 00:00:00;8.401434495819316;18.07288270874285;7.9430430475608125;2.471314141186555;0.04500000000000004
1968-10-22 00:00:00;9.088799275495166;15.520853184731937;8.488293947557596;6.118808836315591;0.895
1968-10-23 00:00:00;11.982119669877775;15.49682119094156;9.46350205422899;5.967038855796616;-0.645
1968-10-24 00:00:00;9.132543592348846;13.657536815690893;8.241096774357647;4.370657781992799;-0.1
1968-10-25 00:00:00;16.351166377153348;15.702532771955802;8.013634781133376;0.6228628327254819;-0.595
1968-10-26 00:00:00;14.914024278637449;14.726689807009333;7.763698920196734;1.7570047389820997;-0.04499999999999993
1968-10-27 00:00:00;13.419047598275029;21.182883822894702;8.751067294620517;2.4892879753434736;0.25500000000000006
1968-10-28 00:00:00;10.332987837685174;21.07912765677986;7.699865013764416;4.798755588059773;0.39
1968-10-29 00:00:00;8.21064246093138;17.411194278165063;7.83273019393908;3.8142680472435235;1.185
1968-10-30 00:00:00;15.630383217532438;17.12781867299487;6.335706066289097;1.365155228196472;-0.18999999999999995
1968-10-31 00:00:00;13.420876968111045;18.739050432108623;7.7931659782598475;3.378528389356955;-0.30500000000000005
1968-11-01 00:00:00;15.725101941926653;5.932470967704002;6.855358458216893;1.9599299145409712;1.28
1968-11-02 00:00:00;14.37298018036421;3.0753752688447116;9.603880404707379;3.743564131569816;0.07499999999999996
1968-11-03 00:00:00;11.62837235326846;10.788080996480339;5.682689688810866;3.0255128582647526;-0.8600000000000001
1968-11-04 00:00:00;13.403190778537038;8.611042911150697;8.924969877439484;4.363642435638596;-0.49000000000000005
1968-11-05 00:00:00;10.259581790331676;5.746644547737799;9.073126860585123;6.207498177376035;0.195
1968-11-06 00:00:00;13.597532586309818;7.160293105685772;9.827681733969062;4.931389419899819;-0.04499999999999993
1968-11-07 00:00:00;10.851539710841848;6.850963928567761;8.311608345254005;5.240488206747081;-0.015
1968-11-08 00:00:00;15.798074317647758;6.972329077720345;7.695180677378623;0.9861259786883152;-1.47
1968-11-09 00:00:00;13.109550993947332;9.469035729431303;6.5645862920652265;7.592806082893963;1.5
1968-11-10 00:00:00;13.196573144081183;8.771315133856193;9.686039734560442;5.395898569459218;-1.1800000000000002
1968-11-11 00:00:00;11.831390000022282;8.23150435522072;5.733534909136759;6.5141608976227054;0.53
1968-11-12 00:00:00;12.17722861231934;8.799705444491066;7.321441013315141;6.38834538411712;0.0
1968-11-13 00:00:00;14.382782025997765;12.797204288830596;7.298181007334485;4.932997539738457;1.475
1968-11-14 00:00:00;13.007344855661001;2.284864733430516;7.932232356437724;3.474050113772655;-0.04500000000000004
1968-11-15 00:00:00;15.928657687386163;1.1081052041050945;7.050274489152823;3.759402023315428;0.735
1968-11-16 00:00:00;6.799082490453463;4.428635787634239;7.568190840024104;2.1947314495029944;0.20999999999999996
1968-11-17 00:00:00;10.571032876466116;12.473417059373212;6.319259361796778;2.8839190485556476;1.07
1968-11-18 00:00:00;10.905686135008587;8.54418792701054;8.207726807310454;4.066278357973739;0.43
1968-11-19 00:00:00;15.966991313403692;10.556980619607323;6.980972591746821;3.123312687999979;0.13999999999999996
1968-11-20 00:00:00;7.079058856154341;1.1075231298859012;7.099755116483104;5.183558203266125;0.20500000000000002
1968-11-21 00:00:00;11.67944445935315;4.287956109874646;9.191561615706949;0.5531174848644764;0.16999999999999998
1968-11-22 00:00:00;12.274715813391449;9.483350610252053;8.024865901616298;2.154033474630821;0.22499999999999998
1968-11-23 00:00:00;12.275438843834422;7.6258232479508585;8.331697860971094;5.4451767890541545;-0.17500000000000002
1968-11-24 00:00:00;12.70195449896597;6.689759728417149;6.29179768274626;4.120387192653853;0.98
1968-11-25 00:00:00;15.748962740434774;2.1009046540090877;7.954854246025635;3.5452438943601603;0.26999999999999996
1968-11-26 00:00:00;11.603571000375897;11.040786518221617;8.014083200148788;5.728997814049179;0.475
1968-11-27 00:00:00;15.796367631250318;9.031797325059728;6.592337802888071;4.215709116798129;0.235
1968-11-28 00:00:00;6.759687832624499;5.189812934676364;8.275136427262392;3.267338641427191;-0.345
1968-11-29 00:00:00;9.784871144859366;11.141166729071859;5.654650429826533;4.463085782992201;-0.10999999999999999
1968-11-30 00:00:00;9.4694031863242;8.41401317531203;7.951046433874453;0.36510519613098147;-0.675
1968-12-01 00:00:00;15.724465007787408;6.309374800000363;8.728797956999667;4.903134980392052;0.775
1968-12-02 00:00:00;14.789831480437885;7.630868893740316;8.466954071692445;4.829633228192819;0.11499999999999999
1968-12-03 00:00:00;11.512984947275777;0.5918896123283184;9.281642721188904;0.27340387981634606;1.585
1968-12-04 00:00:00;15.320253886640797;7.07398781336585;9.505488440608676;0.6985676087073642;1.84
1968-12-05 00:00:00;14.320896802489134;4.298884275124561;8.323706189820445;4.258236894418658;1.575
1968-12-06 00:00:00;10.323258959881132;0.7734210169972018;9.46489514836238;2.1102179529644003;1.7950000000000002
1968-12-07 00:00:00;18.143206192444772;1.334026232604303;8.537649454406337;2.7292212570815457;0.94
1968-12-08 00:00:00;10.83309485743467;2.593589352866709;8.624075846112692;2.9695829278208703;2.045
1968-12-09 00:00:00;13.036588113185829;1.8285494565144895;8.296214939771732;3.2253242928817305;-0.59
1968-12-10 00:00:00;14.53220037946839;3.644739116747855;9.565291280375341;6.4438813484783415;2.65
1968-12-11 00:00:00;11.686116794837332;2.125246633910239;9.325063746307059;3.0219103969814705;-1.215
1968-12-12 00:00:00;11.235429321925668;2.3140865066346334;8.864299523856488;4.913099264174234;1.8499999999999999
1968-12-13 00:00:00;17.566324080004946;-1.5161864228936754;9.64629066251863;5.769438079047299;-1.1300000000000001
1968-12-14 00:00:00;16.79883553789474;4.520239640406735;9.581122017660313;4.138356624943331;0.9199999999999999
1968-12-15 00:00:00;13.916137501479511;6.575408528516397;8.274785404830368;5.180440407524223;0.97
1968-12-16 00:00:00;15.84908304771917;0.5238789327576971;9.34091545949019;3.9359893519919655;-0.41
1968-12-17 00:00:00;14.430285388883725;-1.9295794343887367;8.973789583063922;3.5218043153293768;1.325
1968-12-18 00:00:00;10.258304767010342;3.3892572339355516;8.619593237874371;2.8004157454595604;0.77
1968-12-19 00:00:00;16.141581638115554;1.0508243719837211;9.403226389797435;5.424398927021795;1.355
1968-12-20 00:00:00;14.702192365001906;4.220001582507104;9.8332258716779;2.881012559068299;0.58
1968-12-21 00:00:00;13.98116800282699;-2.989436505442345;8.320787158475985;3.425668675865271;1.5799999999999998
1968-12-22 00:00:00;8.812021994495655;4.311480762239855;9.20556560385149;4.979438260113902;0.7899999999999999
1968-12-23 00:00:00;10.81236870911388;6.568718057462375;8.170583396028318;1.0005939412459872;1.54
1968-12-24 00:00:00;16.0064083438541;2.795264934478697;8.154269515127124;7.262902877886292;-0.8400000000000001
1968-12-25 00:00:00;12.580512957702922;1.9675085682292837;8.542897405115273;4.366047521060381;2.04
1968-12-26 00:00:00;15.800267702594908;2.7187886787310993;9.376356738248369;3.2098009154342435;1.665
1968-12-27 00:00:00;8.823453792566815;1.9660757996845948;8.707968978105031;3.8168401601035002;1.2750000000000001
1968-12-28 00:00:00;18.057547547961118;-0.748125259305835;9.605259029325808;3.508547853276741;2.115
1968-12-29 00:00:00;11.010507694491967;-3.0068460938407533;8.83613728773792;1.5166504944913841;1.995
1968-12-30 00:00:00;9.896677462252025;0.3056434684241953;9.092554667088837;5.556457044981255;0.7449999999999999
1968-12-31 00:00:00;9.865618217308912;1.7869417909169605;9.040041476042202;2.47116947163141;1.42
